[
  {
    "language": "en",
    "_id": "5f4cca5c3eb8bb63eefcc9e1",
    "pages": [
      {
        "id": 1,
        "title": "Your company is secure",
        "description": "Data security refers to protective digital privacy measure that are applied to computers, databases and website. Data security also protects data from corruption",
        "image": "inboard_01"
      },
      {
        "id": 2,
        "title": "Communicate about you",
        "description": "When it comes to business, going corporate means to create a body of systems: policies, models, frameworks, procedures. Going corporate means being organized, knowing how thing work, and intentionally choosing to operate in a way that gets results.",
        "image": "inboard_02"
      },
      {
        "id": 3,
        "title": "Communicate about you",
        "description": "When it comes to business, going corporate means to create a body of systems: policies, models, frameworks, procedures. Going corporate means being organized, knowing how thing work, and intentionally choosing to operate in a way that gets results.",
        "image": "inboard_03"
      },
      {
        "id": 4,
        "title": "Communicate about you",
        "description": "When it comes to business, going corporate means to create a body of systems: policies, models, frameworks, procedures. Going corporate means being organized, knowing how thing work, and intentionally choosing to operate in a way that gets results.",
        "image": "inboard_04"
      }
    ],
    "createdAt": "2020-08-31T10:01:00.205Z",
    "updatedAt": "2020-09-01T02:52:24.251Z",
    "__v": 0,
    "id": "5f4cca5c3eb8bb63eefcc9e1"
  },
  {
    "language": "fr",
    "_id": "5f4ccac03eb8bb63eefcc9e2",
    "pages": [
      {
        "id": 1,
        "title": "Votre entreprise est sécurisée",
        "description": "La sécurité des données fait référence aux mesures de protection de la confidentialité numérique appliquées aux ordinateurs, aux bases de données et au site Web. La sécurité des données protège également les données de la corruption.",
        "image": "inboard_01"
      },
      {
        "id": 2,
        "title": "Communiquez sur vous",
        "description": "En affaires, devenir entreprise signifie créer un ensemble de systèmes: politiques, modèles, cadres, procédures. Être une entreprise signifie être organisé, savoir comment les choses fonctionnent et choisir intentionnellement de fonctionner de manière à obtenir des résultats.",
        "image": "inboard_02"
      },
      {
        "id": 3,
        "title": "Communiquez sur vous",
        "description": "En affaires, devenir entreprise signifie créer un ensemble de systèmes: politiques, modèles, cadres, procédures. Être une entreprise signifie être organisé, savoir comment les choses fonctionnent et choisir intentionnellement de fonctionner de manière à obtenir des résultats.",
        "image": "inboard_03"
      },
      {
        "id": 4,
        "title": "Communiquez sur vous",
        "description": "En affaires, devenir entreprise signifie créer un ensemble de systèmes: politiques, modèles, cadres, procédures. Être une entreprise signifie être organisé, savoir comment les choses fonctionnent et choisir intentionnellement de fonctionner de manière à obtenir des résultats.",
        "image": "inboard_04"
      }
    ],
    "createdAt": "2020-08-31T10:02:40.068Z",
    "updatedAt": "2020-09-01T02:52:46.342Z",
    "__v": 0,
    "id": "5f4ccac03eb8bb63eefcc9e2"
  }
]