[
  {
    "_id": "1",
    "provider": "ABA PAY",
    "accountNumber": "ea447d",
    "accountOwner": "John",
    "logo": "https://media-exp1.licdn.com/dms/image/C4D0BAQGWbajLER8R1A/company-logo_200_200/0/1519864462055?e=2159024400&v=beta&t=9trn6JLb1lMvMHrj8iJl9lLpIuhqk4iit0FiHv7zXRU",
    "isEnabled": true
  },
  {
    "_id": "2",
    "provider": "ALIPAY",
    "accountNumber": "a404e491",
    "accountOwner": "John",
    "logo": "https://media-exp1.licdn.com/dms/image/C4D0BAQGWbajLER8R1A/company-logo_200_200/0/1519864462055?e=2159024400&v=beta&t=9trn6JLb1lMvMHrj8iJl9lLpIuhqk4iit0FiHv7zXRU",
    "isEnabled": true
  },
  {
    "_id": "3",
    "provider": "CANADIA BANK",
    "accountNumber": "5-82f",
    "accountOwner": "John",
    "logo": "https://media-exp1.licdn.com/dms/image/C4D0BAQGWbajLER8R1A/company-logo_200_200/0/1519864462055?e=2159024400&v=beta&t=9trn6JLb1lMvMHrj8iJl9lLpIuhqk4iit0FiHv7zXRU",
    "isEnabled": true
  },
  {
    "_id": "4",
    "provider": "CHIP MONG PAY",
    "accountNumber": "dd8bfdc8fce02e10",
    "accountOwner": "John",
    "logo": "https://media-exp1.licdn.com/dms/image/C4D0BAQGWbajLER8R1A/company-logo_200_200/0/1519864462055?e=2159024400&v=beta&t=9trn6JLb1lMvMHrj8iJl9lLpIuhqk4iit0FiHv7zXRU",
    "isEnabled": true
  },
  {
    "_id": "5",
    "provider": "e money",
    "accountNumber": "110021",
    "accountOwner": "John",
    "logo": "https://media-exp1.licdn.com/dms/image/C4D0BAQGWbajLER8R1A/company-logo_200_200/0/1519864462055?e=2159024400&v=beta&t=9trn6JLb1lMvMHrj8iJl9lLpIuhqk4iit0FiHv7zXRU",
    "isEnabled": true
  },
  {
    "_id": "6",
    "provider": "PhillipBank",
    "accountNumber": "19123011",
    "accountOwner": "John",
    "logo": "https://media-exp1.licdn.com/dms/image/C4D0BAQGWbajLER8R1A/company-logo_200_200/0/1519864462055?e=2159024400&v=beta&t=9trn6JLb1lMvMHrj8iJl9lLpIuhqk4iit0FiHv7zXRU",
    "isEnabled": true
  },
  {
    "_id": "7",
    "provider": "Pi Pay",
    "accountNumber": "jonh0011",
    "accountOwner": "John",
    "logo": "https://media-exp1.licdn.com/dms/image/C4D0BAQGWbajLER8R1A/company-logo_200_200/0/1519864462055?e=2159024400&v=beta&t=9trn6JLb1lMvMHrj8iJl9lLpIuhqk4iit0FiHv7zXRU",
    "isEnabled": true
  },
  {
    "_id": "8",
    "provider": "SATHAPANA BANK",
    "accountNumber": "12930001",
    "accountOwner": "John",
    "logo": "https://media-exp1.licdn.com/dms/image/C4D0BAQGWbajLER8R1A/company-logo_200_200/0/1519864462055?e=2159024400&v=beta&t=9trn6JLb1lMvMHrj8iJl9lLpIuhqk4iit0FiHv7zXRU",
    "isEnabled": true
  },
  {
    "_id": "9",
    "provider": "WeChat Pay",
    "accountNumber": "019991",
    "accountOwner": "John",
    "logo": "https://media-exp1.licdn.com/dms/image/C4D0BAQGWbajLER8R1A/company-logo_200_200/0/1519864462055?e=2159024400&v=beta&t=9trn6JLb1lMvMHrj8iJl9lLpIuhqk4iit0FiHv7zXRU",
    "isEnabled": true
  },
  {
    "_id": "10",
    "provider": "ACELEDA BANK",
    "accountNumber": "2788881",
    "accountOwner": "John",
    "logo": "https://media-exp1.licdn.com/dms/image/C4D0BAQGWbajLER8R1A/company-logo_200_200/0/1519864462055?e=2159024400&v=beta&t=9trn6JLb1lMvMHrj8iJl9lLpIuhqk4iit0FiHv7zXRU",
    "isEnabled": true
  }
]