[
  {
    "_id": "12hacbnsdlk21",
    "username": "Test home",
    "countryCode": "+855",
    "phone": "12345678",
    "label": "HOME",
    "address": "Street 1, Phnom penh, Cambodia"
  },
  {
    "id": "99g908sdfgvak",
    "username": "Test school",
    "countryCode": "+855",
    "phone": "12345678",
    "label": "SCHOOL",
    "address": "Street 50, Phnom penh, Cambodia"
  }
]